{
  "IcoMoonType": "selection",
  "icons": [
    {
      "icon": {
        "paths": [
          "M512 112c-229.792 0-416 186.24-416 416s186.208 416 416 416c229.728 0 416-186.24 416-416s-186.24-416-416-416zM508.64 864.864c-185.568 0-336-150.432-336-336s150.432-336 336-336c185.536 0 336 150.432 336 336 0 185.568-150.464 336-336 336zM605.76 548.192h-95.36v-161.024c0-17.472-14.176-31.68-31.648-31.68-17.504 0-31.68 14.176-31.68 31.68v192.672c0 17.504 14.176 31.648 31.68 31.648h127.008c17.504 0 31.68-14.144 31.68-31.648 0-17.472-14.176-31.648-31.68-31.648z"
        ],
        "attrs": [],
        "isMulticolor": false,
        "isMulticolor2": false,
        "tags": [
          "time",
          "clock"
        ],
        "grid": 32
      },
      "attrs": [],
      "properties": {
        "id": 93,
        "order": 31,
        "prevSize": 32,
        "code": 59654,
        "name": "time"
      },
      "setIdx": 6,
      "setId": 15,
      "iconIdx": 92
    },
    {
      "icon": {
        "paths": [
          "M961.714 461.714l-424 423.429c-14.286 14.286-37.143 14.286-51.429 0l-424-423.429c-14.286-14.286-14.286-37.714 0-52l94.857-94.286c14.286-14.286 37.143-14.286 51.429 0l303.429 303.429 303.429-303.429c14.286-14.286 37.143-14.286 51.429 0l94.857 94.286c14.286 14.286 14.286 37.714 0 52z"
        ],
        "width": 1024,
        "attrs": [],
        "isMulticolor": false,
        "isMulticolor2": false,
        "tags": [
          "chevron-down"
        ],
        "defaultCode": 61560,
        "grid": 14
      },
      "attrs": [],
      "properties": {
        "name": "chevron-down",
        "id": 114,
        "order": 30,
        "prevSize": 28,
        "code": 61560
      },
      "setIdx": 9,
      "setId": 12,
      "iconIdx": 114
    },
    {
      "icon": {
        "paths": [
          "M0 810.666c0 47.146 38.186 85.334 85.334 85.334h853.334c47.146 0 85.334-38.186 85.334-85.334l-0.002-576c0-47.146-38.186-85.334-85.334-85.334l-853.332 0.002c-47.146 0-85.334 38.186-85.334 85.334v575.998zM314.026 523.306l-195.2-196.48c-16.192-16.214-16.192-42.454 0-58.666 16.234-16.214 42.474-16.214 58.666 0l311.468 311.872c12.586 12.374 33.302 12.374 45.674 0l311.872-311.872c16.214-16.214 42.454-16.214 58.666 0 16.214 16.214 16.214 42.454 0 58.666l-195.414 196.48 195.414 195.178c16.214 16.214 16.214 42.454 0 58.666s-42.454 16.214-58.666 0l-195.2-194.986c0 0-60.992 62.080-72.086 73.174-17.3 16.876-41.194 27.328-67.22 27.328-26.454 0-50.346-10.666-67.626-27.968-11.306-11.094-71.894-72.512-71.894-72.512l-195.008 194.986c-16.192 16.214-42.432 16.214-58.666 0-16.192-16.214-16.192-42.454 0-58.666l195.22-195.2z"
        ],
        "attrs": [],
        "isMulticolor": false,
        "tags": [
          "envelope",
          "letter",
          "email",
          "mail"
        ],
        "grid": 48
      },
      "attrs": [],
      "properties": {
        "id": 7,
        "order": 25,
        "prevSize": 48,
        "code": 59648,
        "name": "envelope"
      },
      "setIdx": 20,
      "setId": 1,
      "iconIdx": 0
    },
    {
      "icon": {
        "paths": [
          "M554.667 426.667h128v128h-128v298.667h-128v-298.667h-128v-128h128v-53.547c0-50.731 15.957-114.816 47.701-149.845 31.744-35.115 71.381-52.608 118.869-52.608h89.429v128h-89.6c-21.248 0-38.4 17.152-38.4 38.357v89.643z"
        ],
        "attrs": [],
        "isMulticolor": false,
        "tags": [
          "social-facebook"
        ],
        "grid": 24
      },
      "attrs": [],
      "properties": {
        "id": 98,
        "order": 24,
        "prevSize": 24,
        "code": 59649,
        "name": "social-facebook"
      },
      "setIdx": 20,
      "setId": 1,
      "iconIdx": 1
    },
    {
      "icon": {
        "paths": [
          "M384 690l452-452 60 60-512 512-238-238 60-60z"
        ],
        "attrs": [],
        "isMulticolor": false,
        "tags": [
          "check"
        ],
        "defaultCode": 58826,
        "grid": 24
      },
      "attrs": [],
      "properties": {
        "order": 27,
        "ligatures": "check",
        "id": 148,
        "prevSize": 24,
        "code": 58826,
        "name": "check"
      },
      "setIdx": 20,
      "setId": 1,
      "iconIdx": 2
    },
    {
      "icon": {
        "paths": [
          "M128 256h768v86h-768v-86zM128 554v-84h768v84h-768zM128 768v-86h768v86h-768z"
        ],
        "attrs": [],
        "isMulticolor": false,
        "tags": [
          "menu"
        ],
        "defaultCode": 58834,
        "grid": 24
      },
      "attrs": [],
      "properties": {
        "order": 19,
        "ligatures": "menu",
        "id": 489,
        "prevSize": 24,
        "code": 58834,
        "name": "menu"
      },
      "setIdx": 20,
      "setId": 1,
      "iconIdx": 3
    },
    {
      "icon": {
        "paths": [
          "M771.868 950.165c15.831 16.066 15.831 41.879 0 57.828s-41.406 16.007-57.237 0l-462.501-467.108c-15.831-15.948-15.831-41.76 0-57.828l462.501-467.108c15.831-15.948 41.406-15.948 57.237 0 15.831 16.007 15.831 41.879 0 57.828l-421.803 438.224 421.803 438.165z"
        ],
        "attrs": [],
        "isMulticolor": false,
        "tags": [
          "chevron-thin-left"
        ],
        "grid": 20
      },
      "attrs": [],
      "properties": {
        "id": 42,
        "order": 21,
        "prevSize": 20,
        "code": 59650,
        "name": "chevron-thin-left"
      },
      "setIdx": 20,
      "setId": 1,
      "iconIdx": 4
    },
    {
      "icon": {
        "paths": [
          "M673.934 512.059l-421.803-438.283c-15.831-15.948-15.831-41.76 0-57.828 15.831-15.948 41.406-15.948 57.237 0l462.501 467.108c15.831 16.007 15.831 41.879 0 57.828l-462.501 467.108c-15.831 16.007-41.406 15.948-57.237 0-15.831-15.889-15.831-41.76 0-57.828l421.803-438.105z"
        ],
        "attrs": [],
        "isMulticolor": false,
        "tags": [
          "chevron-thin-right"
        ],
        "grid": 20
      },
      "attrs": [],
      "properties": {
        "id": 43,
        "order": 22,
        "prevSize": 20,
        "code": 59651,
        "name": "chevron-thin-right"
      },
      "setIdx": 20,
      "setId": 1,
      "iconIdx": 5
    },
    {
      "icon": {
        "paths": [
          "M870.4 51.2h-716.8c-56.32 0-102.4 46.080-102.4 102.4v716.8c0 56.371 46.080 102.4 102.4 102.4h716.8c56.32 0 102.4-46.029 102.4-102.4v-716.8c0-56.32-46.080-102.4-102.4-102.4zM511.181 794.778c156.621 0 283.546-127.027 283.546-283.597 0-17.306-2.202-33.997-5.274-50.381h80.947v369.459c0 19.558-15.872 35.328-35.482 35.328h-645.837c-19.61-0-35.482-15.77-35.482-35.328v-369.459h79.309c-3.123 16.384-5.325 33.075-5.325 50.381 0 156.621 127.027 283.597 283.597 283.597zM333.978 511.181c0-97.894 79.36-177.203 177.254-177.203 97.843 0 177.254 79.309 177.254 177.203s-79.411 177.254-177.254 177.254c-97.946 0-177.254-79.36-177.254-177.254zM834.918 307.2h-82.688c-19.558 0-35.43-15.974-35.43-35.43v-82.79c0-19.558 15.872-35.379 35.379-35.379h82.688c19.661 0 35.533 15.821 35.533 35.379v82.739c0 19.507-15.872 35.482-35.482 35.482z"
        ],
        "attrs": [],
        "isMulticolor": false,
        "tags": [
          "instagram"
        ],
        "grid": 20
      },
      "attrs": [],
      "properties": {
        "id": 368,
        "order": 28,
        "prevSize": 20,
        "code": 59653,
        "name": "instagram"
      },
      "setIdx": 20,
      "setId": 1,
      "iconIdx": 6
    },
    {
      "icon": {
        "paths": [
          "M768 512h-384v128c0 70.688 57.312 128 128 128h64 192c70.688 0 128 57.312 128 128s-57.312 128-128 128h-96-160c-212.064 0-384-171.936-384-384v-384-64-64c0-70.688 57.312-128 128-128s128 57.312 128 128v64 64h384c70.688 0 128 57.312 128 128s-57.312 128-128 128z"
        ],
        "attrs": [],
        "isMulticolor": false,
        "tags": [
          "twitter",
          "social"
        ],
        "grid": 16
      },
      "attrs": [],
      "properties": {
        "id": 15,
        "order": 23,
        "prevSize": 32,
        "code": 59652,
        "name": "twitter"
      },
      "setIdx": 20,
      "setId": 1,
      "iconIdx": 7
    }
  ],
  "height": 1024,
  "metadata": {
    "name": "icomoon"
  },
  "preferences": {
    "showGlyphs": true,
    "showQuickUse": true,
    "showQuickUse2": true,
    "showSVGs": true,
    "fontPref": {
      "prefix": "icon-",
      "metadata": {
        "fontFamily": "icomoon"
      },
      "metrics": {
        "emSize": 1024,
        "baseline": 6.25,
        "whitespace": 50
      },
      "embed": false
    },
    "imagePref": {
      "prefix": "icon-",
      "png": true,
      "useClassSelector": true,
      "color": 4473924,
      "bgColor": 16777215,
      "classSelector": ".icon",
      "autoHost": false
    },
    "historySize": 100,
    "gridSize": 16,
    "showCodes": true,
    "quickUsageToken": {
      "grannyweb": "MWIzNzc0NzZjOGRhYjVjMTQzMTE1NTdmZDg1NTQxOTYjMSMxNDQ4NTMxNjcwIyMj"
    },
    "imageHostingName": false
  }
}